S3 Objects
…
But these are not:

sloop::ftype(sum)

## [1] "primitive" "generic"

sloop::ftype(c)

## [1] "primitive" "generic"

Generic functions behave differently depending on the class of the object.

print(mt_tb)

## # A tibble: 32 × 11
##      mpg   cyl  disp    hp  drat    wt  qsec    vs    am  gear  carb
##    <dbl> <dbl> <dbl> <dbl> <dbl> <dbl> <dbl> <dbl> <dbl> <dbl> <dbl>
##  1  21       6  160    110  3.9   2.62  16.5     0     1     4     4
##  2  21       6  160    110  3.9   2.88  17.0     0     1     4     4
##  3  22.8     4  108     93  3.85  2.32  18.6     1     1     4     1
##  4  21.4     6  258    110  3.08  3.22  19.4     1     0     3     1
##  5  18.7     8  360    175  3.15  3.44  17.0     0     0     3     2
##  6  18.1     6  225    105  2.76  3.46  20.2     1     0     3     1
##  7  14.3     8  360    245  3.21  3.57  15.8     0     0     3     4
##  8  24.4     4  147.    62  3.69  3.19  20       1     0     4     2
##  9  22.8     4  141.    95  3.92  3.15  22.9     1     0     4     2
## 10  19.2     6  168.   123  3.92  3.44  18.3     1     0     4     4
## # … with 22 more rows
…
sloop::ftype(read.csv)

## [1] "function"

sloop::ftype(t.test)

## [1] "S3"      "generic"

Because of this, you should never name variables are functions with a dot in them.

To find all of the methods of a generic, use sloop::s3_methods_generic().

sloop::s3_methods_generic("print")

## # A tibble: 309 × 4
##    generic class       visible source             
##    <chr>   <chr>       <lgl>   <chr>              
##  1 print   acf         FALSE   registered S3method
##  2 print   AES         FALSE   registered S3method
##  3 print   all_vars    FALSE   registered S3method
##  4 print   anova       FALSE   registered S3method
##  5 print   ansi_string FALSE   registered S3method
##  6 print   ansi_style  FALSE   registered S3method
##  7 print   any_vars    FALSE   registered S3method
##  8 print   aov         FALSE   registered S3method
##  9 print   aovlist     FALSE   registered S3method
## 10 print   ar          FALSE   registered S3method
## # … with 299 more rows

To find all methods for a class, use sloop::s3_methods_class().

sloop::s3_methods_class("data.frame")

## # A tibble: 55 × 4
##    generic       class      visible source
##    <chr>         <chr>      <lgl>   <chr> 
##  1 [             data.frame TRUE    base  
##  2 [[            data.frame TRUE    base  
##  3 [[<-          data.frame TRUE    base  
##  4 [<-           data.frame TRUE    base  
##  5 $<-           data.frame TRUE    base  
##  6 aggregate     data.frame TRUE    stats 
##  7 anyDuplicated data.frame TRUE    base  
##  8 anyNA         data.frame TRUE    base  
##  9 as.data.frame data.frame TRUE    base  
## 10 as.list       data.frame TRUE    base  
## # … with 45 more rows
…
